[
  {
    "year": "2008",
    "player": "SE Marsh",
    "wins": 5
  },
  {
    "year": "2009",
    "player": "YK Pathan",
    "wins": 3
  },
  {
    "year": "2010",
    "player": "SR Tendulkar",
    "wins": 4
  },
  {
    "year": "2011",
    "player": "CH Gayle",
    "wins": 6
  },
  {
    "year": "2012",
    "player": "CH Gayle",
    "wins": 5
  },
  {
    "year": "2013",
    "player": "MEK Hussey",
    "wins": 5
  },
  {
    "year": "2014",
    "player": "GJ Maxwell",
    "wins": 4
  },
  {
    "year": "2015",
    "player": "DA Warner",
    "wins": 4
  },
  {
    "year": "2016",
    "player": "V Kohli",
    "wins": 5
  },
  {
    "year": "2017",
    "player": "NM Coulter-Nile",
    "wins": 3
  }
]